module todoapp

go 1.16

require (
	github.com/go-macaron/binding v1.1.1 // indirect
	github.com/go-sql-driver/mysql v1.6.0 // indirect
	github.com/gorilla/handlers v1.5.1 // indirect
	github.com/gorilla/mux v1.8.0 // indirect
	github.com/labstack/echo v3.3.10+incompatible // indirect
	github.com/labstack/echo/v4 v4.2.2 // indirect
	
	
)
